Using FeatureExtraction • FeatureExtraction
…
Similarly, if we want to know which redundant covariates were removed we can also query the metaData object:

deletedCovariateIds <- attr(tidyCovariates, "metaData")$deletedRedundantCovariateIds
head(deletedCovariateIds)

## [1]  1118084410  1118084412  1118084413 21603931410 21603931412 21603931413

If we want to know what these numbers mean, we can use the covariateRef object that is part of any covariateData object. Remember that the covariate data is stored in an Andromeda object, so we should use the proper syntax for querying these objects (see the Andromeda package documentation):

library(Andromeda)
covariateData$covariateRef %>%
  filter(covariateId %in% deletedCovariateIds, ) %>%
  collect()

## # A tibble: 21 x 4
##     covariateId covariateName                     analysisId conceptId
##           <dbl> <chr>                                  <dbl>     <dbl>
##  1      8527004 race = White                               4      8527
##  2      8532001 gender = FEMALE                            1      8532
##  3      2015006 index year: 2015                           6         0
##  4         1007 index month: 1                             7         0
##  5        10003 age group: 50-54                           3         0
##  6 900000010802 ...tance Abuse Coverage Indicator        802 900000010
##  7  21603932410 ...ORY AND ANTIRHEUMATIC PRODUCTS        410  21603932
##  8  21603991412 ...days relative to index: Coxibs        412  21603991
##  9  21603933412 ...EUMATIC PRODUCTS, NON-STEROIDS        412  21603933
## 10   1118084412 ...s relative to index: celecoxib        412   1118084
## # ... with 11 more rows
…
